%YAML 1.1
%TAG !u! tag:unity3d.com,2011:
--- !u!114 &11400000
MonoBehaviour:
  m_ObjectHideFlags: 0
  m_CorrespondingSourceObject: {fileID: 0}
  m_PrefabInstance: {fileID: 0}
  m_PrefabAsset: {fileID: 0}
  m_GameObject: {fileID: 0}
  m_Enabled: 1
  m_EditorHideFlags: 0
  m_Script: {fileID: 11500000, guid: dc7904c3092a2264a9126e11a87b76a5, type: 3}
  m_Name: Level1
  m_EditorClassIdentifier: 
  _roundConfigs:
  - {fileID: 11400000, guid: d65831ac4e02c2d4291d2e5e33941b8f, type: 2}
  - {fileID: 11400000, guid: a614112742d39e54e9e49a401b5c68e2, type: 2}
