%YAML 1.1
%TAG !u! tag:unity3d.com,2011:
--- !u!1 &5116746204557828665
GameObject:
  m_ObjectHideFlags: 0
  m_CorrespondingSourceObject: {fileID: 0}
  m_PrefabInstance: {fileID: 0}
  m_PrefabAsset: {fileID: 0}
  serializedVersion: 6
  m_Component:
  - component: {fileID: 6277019426349456404}
  - component: {fileID: 357230989367839426}
  m_Layer: 0
  m_Name: MobSpawner
  m_TagString: Untagged
  m_Icon: {fileID: 0}
  m_NavMeshLayer: 0
  m_StaticEditorFlags: 0
  m_IsActive: 1
--- !u!4 &6277019426349456404
Transform:
  m_ObjectHideFlags: 0
  m_CorrespondingSourceObject: {fileID: 0}
  m_PrefabInstance: {fileID: 0}
  m_PrefabAsset: {fileID: 0}
  m_GameObject: {fileID: 5116746204557828665}
  m_LocalRotation: {x: 0, y: 0, z: 0, w: 1}
  m_LocalPosition: {x: 0, y: 0, z: 0}
  m_LocalScale: {x: 1, y: 1, z: 1}
  m_Children: []
  m_Father: {fileID: 0}
  m_RootOrder: 0
  m_LocalEulerAnglesHint: {x: 0, y: 0, z: 0}
--- !u!114 &357230989367839426
MonoBehaviour:
  m_ObjectHideFlags: 0
  m_CorrespondingSourceObject: {fileID: 0}
  m_PrefabInstance: {fileID: 0}
  m_PrefabAsset: {fileID: 0}
  m_GameObject: {fileID: 5116746204557828665}
  m_Enabled: 1
  m_EditorHideFlags: 0
  m_Script: {fileID: 11500000, guid: 65b83befb7a9489408098f5a4c01d3da, type: 3}
  m_Name: 
  m_EditorClassIdentifier: 
  _spawnOffset: {x: 30, y: 5}
  _mobFactory: {fileID: 5637884444888418283, guid: 5669dd781d4f5884eb2d067fe0dcebf0, type: 3}
  _levelConfigs:
  - {fileID: 11400000, guid: 9756746139390b04b8738b0e557c4ee5, type: 2}
