%YAML 1.1
%TAG !u! tag:unity3d.com,2011:
--- !u!114 &11400000
MonoBehaviour:
  m_ObjectHideFlags: 0
  m_CorrespondingSourceObject: {fileID: 0}
  m_PrefabInstance: {fileID: 0}
  m_PrefabAsset: {fileID: 0}
  m_GameObject: {fileID: 0}
  m_Enabled: 1
  m_EditorHideFlags: 0
  m_Script: {fileID: 11500000, guid: de1afcecabc0efa47993a757c3712526, type: 3}
  m_Name: SlimeHard
  m_EditorClassIdentifier: 
  _startSpawnDelay: 5
  _count: 2
  _spawnDelay: 1
  _mobType: 0
