{
    "name": "InputActions",
    "maps": [
        {
            "name": "Gameplay",
            "id": "46fac1a6-3285-4b1d-ba15-bd5922c52bfc",
            "actions": [
                {
                    "name": "Rotate",
                    "type": "Value",
                    "id": "35286884-3923-4c0b-b2f8-f4b4c3cf2cc8",
                    "expectedControlType": "Vector2",
                    "processors": "",
                    "interactions": ""
                },
                {
                    "name": "Attack",
                    "type": "Button",
                    "id": "093361e2-9be2-4c65-9726-ecd3cce84b26",
                    "expectedControlType": "Button",
                    "processors": "",
                    "interactions": ""
                }
            ],
            "bindings": [
                {
                    "name": "",
                    "id": "355c4d4a-7f16-4b76-94fd-cccdccd66db4",
                    "path": "<Mouse>/delta",
                    "interactions": "",
                    "processors": "",
                    "groups": "",
                    "action": "Rotate",
                    "isComposite": false,
                    "isPartOfComposite": false
                },
                {
                    "name": "",
                    "id": "6e54092e-3169-4e98-b734-ace1a529f922",
                    "path": "<Mouse>/leftButton",
                    "interactions": "",
                    "processors": "",
                    "groups": "",
                    "action": "Attack",
                    "isComposite": false,
                    "isPartOfComposite": false
                }
            ]
        }
    ],
    "controlSchemes": []
}